parteD/simulation/qsim/maq_estado.msim.vcd
$comment
	File created using the following command:
		vcd file maq_estado.msim.vcd -direction
$end
$date
	Sun Nov 05 19:29:52 2023
$end
$version
	ModelSim Version 10.1d
$end
$timescale
	1ps
$end
$scope module maq_estado_vlg_vec_tst $end
$var reg 1 ! clock $end
$var reg 1 " reset $end
$var reg 1 # x $end
$var wire 1 $ d1 $end
$var wire 1 % d2 $end
$var wire 1 & d3 $end
$var wire 1 ' d4 $end
$var wire 1 ( sampler $end
$scope module i1 $end
$var wire 1 ) gnd $end
$var wire 1 * vcc $end
$var wire 1 + unknown $end
$var tri1 1 , devclrn $end
$var tri1 1 - devpor $end
$var tri1 1 . devoe $end
$var wire 1 / clock~input_o $end
$var wire 1 0 clock~inputclkctrl_outclk $end
$var wire 1 1 d4~output_o $end
$var wire 1 2 d3~output_o $end
$var wire 1 3 d2~output_o $end
$var wire 1 4 d1~output_o $end
$var wire 1 5 x~input_o $end
$var wire 1 6 reset~input_o $end
$var wire 1 7 reg_fstate.state5~0_combout $end
$var wire 1 8 fstate.state5~q $end
$var wire 1 9 reg_fstate.state6~0_combout $end
$var wire 1 : fstate.state6~q $end
$var wire 1 ; reg_fstate.state3~0_combout $end
$var wire 1 < fstate.state3~q $end
$var wire 1 = reg_fstate.state7~0_combout $end
$var wire 1 > fstate.state7~q $end
$var wire 1 ? reg_fstate.state4~0_combout $end
$var wire 1 @ fstate.state4~q $end
$var wire 1 A reg_fstate.state1~0_combout $end
$var wire 1 B fstate.state1~q $end
$var wire 1 C reg_fstate.state2~0_combout $end
$var wire 1 D fstate.state2~q $end
$var wire 1 E d3~0_combout $end
$var wire 1 F d4~0_combout $end
$var wire 1 G d3~1_combout $end
$var wire 1 H d2~0_combout $end
$var wire 1 I d1~0_combout $end
$upscope $end
$upscope $end
$enddefinitions $end
#0
$dumpvars
0!
0"
0#
0$
0%
0&
0'
x(
0)
1*
x+
1,
1-
1.
0/
00
01
02
03
04
05
06
07
08
09
0:
0;
0<
0=
0>
0?
0@
1A
0B
1C
0D
1E
0F
0G
0H
0I
$end
#500
1!
1/
10
0(
1D
1B
1;
0C
1H
1G
13
12
1%
1&
#900
1#
15
1(
#1000
0!
0/
00
0(
#1500
1!
1/
10
1(
0D
1<
0;
0E
1=
1F
1I
11
14
1'
1$
0I
0H
0G
0F
04
03
02
01
0$
0%
0&
0'
#1800
0#
05
0(
1E
1?
0=
1I
1H
1G
1F
14
13
12
11
1$
1%
1&
1'
#2000
0!
0/
00
1(
#2500
1!
1/
10
0(
1@
0<
0A
0?
0G
0H
02
03
0&
0%
#2700
1#
15
1(
#3000
0!
0/
00
0(
#3500
1!
1/
10
1(
0B
0@
17
1A
0F
0I
01
04
0'
0$
#3600
0#
05
0(
1C
07
#4000
0!
0/
00
1(
#4500
1#
1!
15
1/
10
0(
0C
17
1D
1B
1;
07
1H
1G
13
12
1%
1&
#5000
0!
0/
00
1(
#5400
0#
05
0(
#5500
1!
1/
10
1(
0D
1<
0;
1?
1F
1I
11
14
1'
1$
#6000
0!
0/
00
0(
#6300
1#
15
1(
0E
0?
1=
0I
0H
0G
0F
04
03
02
01
0$
0%
0&
0'
#6500
1!
1/
10
0(
1>
0<
0A
1E
0=
1I
1H
1G
1F
14
13
12
11
1$
1%
1&
1'
#7000
0!
0/
00
1(
#7200
0#
05
0(
#7500
1!
1/
10
1(
0B
0>
1C
1A
0G
0F
0I
0H
02
01
04
03
0&
0'
0$
0%
#8000
0!
0/
00
0(
#8100
1#
15
1(
0C
17
#8500
1!
1/
10
0(
1B
18
07
19
1F
11
1'
#9000
0#
0!
05
0/
00
1(
#9500
1!
1/
10
0(
1:
08
1;
09
1G
12
1&
#9900
1#
15
1(
