parteB/simulation/qsim/sumador_completo.msim.vcd
$comment
	File created using the following command:
		vcd file sumador_completo.msim.vcd -direction
$end
$date
	Fri Nov 03 14:43:05 2023
$end
$version
	ModelSim Version 10.1d
$end
$timescale
	1ps
$end
$scope module sumador_completo_ffD_vlg_vec_tst $end
$var reg 1 ! clk $end
$var reg 1 " in_a $end
$var reg 1 # in_b $end
$var reg 1 $ in_cin $end
$var wire 1 % out_cout $end
$var wire 1 & out_suma $end
$var wire 1 ' sampler $end
$scope module i1 $end
$var wire 1 ( gnd $end
$var wire 1 ) vcc $end
$var wire 1 * unknown $end
$var tri1 1 + devclrn $end
$var tri1 1 , devpor $end
$var tri1 1 - devoe $end
$var wire 1 . d3|q~q $end
$var wire 1 / in_cin~input_o $end
$var wire 1 0 d3|q~feeder_combout $end
$var wire 1 1 out_suma~output_o $end
$var wire 1 2 out_cout~output_o $end
$var wire 1 3 clk~input_o $end
$var wire 1 4 clk~inputclkctrl_outclk $end
$var wire 1 5 in_b~input_o $end
$var wire 1 6 d2|q~feeder_combout $end
$var wire 1 7 d2|q~q $end
$var wire 1 8 in_a~input_o $end
$var wire 1 9 d1|q~feeder_combout $end
$var wire 1 : d1|q~q $end
$var wire 1 ; suma~0_combout $end
$var wire 1 < d5|q~q $end
$var wire 1 = cout~0_combout $end
$var wire 1 > d4|q~q $end
$upscope $end
$upscope $end
$enddefinitions $end
#0
$dumpvars
0!
0"
0#
0$
x%
x&
x'
0(
1)
x*
1+
1,
1-
0.
0/
x0
x1
x2
03
x4
05
x6
07
08
x9
0:
x;
0<
x=
0>
$end
#173
04
#200
1!
0'
#400
0!
1'
#600
1!
0'
#782
0;
#797
0=
#800
0!
1'
#1000
1$
1!
0'
#1200
0!
1'
#1400
1!
0'
#1600
0!
1'
#1786
1/
#1800
1!
0'
#2000
1#
0$
0!
1'
#2200
1!
0'
#2400
0!
1'
#2600
1!
0'
#2766
15
#2800
0!
1'
#2893
0/
#2933
01
0&
#3000
1$
1!
0'
#3200
0!
1'
#3233
02
0%
#3400
1!
0'
#3437
09
#3600
0!
1'
#3786
1/
#3800
1!
0'
#4000
1"
0#
0$
0!
1'
#4200
1!
0'
#4400
0!
1'
#4600
1!
0'
#4800
0!
1'
#4806
18
#4873
05
#4893
0/
#5000
1$
1!
0'
#5200
0!
1'
#5400
1!
0'
#5600
0!
1'
#5786
1/
#5800
1!
0'
#6000
1#
0$
0!
1'
#6200
1!
0'
#6400
0!
1'
#6600
1!
0'
#6766
15
#6800
0!
1'
#6893
0/
#7000
1$
1!
0'
#7200
0!
1'
#7400
1!
0'
#7600
0!
1'
#7786
1/
#7800
1!
0'
#8000
0"
0#
0$
0!
1'
#8013
19
#8200
1!
0'
#8400
0!
1'
#8600
1!
0'
#8800
0!
1'
#8873
05
#8893
0/
#8913
08
#9000
1$
1!
0'
#9200
0!
1'
#9400
1!
0'
#9600
0!
1'
#9786
1/
#9800
1!
0'
